{
    "2": {
        "UserName": "ali",
        "Email": "ali@gmail.com",
        "Password": "ali"
    },
    "3": {
        "UserName": "test",
        "Email": "test@gmail.com",
        "Password": "test"
    },
    "4": {
        "UserName": "www",
        "Email": "www@gmail.com",
        "Password": "www"
    },
    "5": {
        "UserName": "parisa",
        "Email": "parisa@gmail.com",
        "Password": "parisa"
    },
    "6": {
        "UserName": "admin",
        "Email": "admin@gmail.com",
        "Password": "admin"
    },
    "7": {
        "UserName": "test2",
        "Email": "test2@gmail.com",
        "Password": "test2"
    }
}